{
  "poll_votes": [
    {
      "timestamp": 1549246707,
      "attachments": [
        {
          "data": [
            {
              "poll": {
                "options": [
                  {
                    "option": "Keep playing soccer",
                    "voted": true
                  }
                ]
              }
            }
          ]
        }
      ],
      "title": "William Smith voted on Rosie Elizabeth Middleton's poll."
    }
  ]
}
