{
  "active_sessions": [
    {
      "created_timestamp": 1557169989,
      "updated_timestamp": 1578286020,
      "ip_address": "101.102.103.104",
      "user_agent": "Mozilla/5.0 (Macintosh; Intel Mac OS X 10.15; rv:71.0) Gecko/20100101 Firefox/71.0",
      "datr_cookie": "-oXQ********************",
      "device": "Mac",
      "location": "Santa Clara, CA, United States",
      "app": "Firefox"
    },
    {
      "created_timestamp": 1506460618,
      "updated_timestamp": 1578269917,
      "ip_address": "101.102.103.104",
      "user_agent": "Mozilla/5.0 (iPhone; CPU iPhone OS 13_3 like Mac OS X) AppleWebKit/605.1.15 (KHTML, like Gecko) Mobile/15E148 [FBAN/FBIOS;FBAV/251.0.0.50.110;FBBV/188958159;FBDV/iPhone10,1;FBMD/iPhone;FBSN/iOS;FBSV/13.3;FBSS/2;FBID/phone;FBLC/en_US;FBOP/5;FBRV/190291779;FBCR/Sprint]",
      "datr_cookie": "3XwS********************",
      "device": "iPhone 8",
      "location": "Santa Clara, CA, United States",
      "app": "Facebook app"
    }
  ]
}
