[
  {
    "timestamp": 1577985585,
    "attachments": [
      {
        "data": [
          {
            "external_context": {
              "url": "https://mydata.org/"
            }
          }
        ]
      }
    ],
    "data": [
      {
        "post": "An international community of people who care about their, your, my, data. https://mydata.org/"
      },
      {
        "update_timestamp": 1577985585
      }
    ],
    "title": "William Smith"
  },
  {
    "timestamp": 1576634379,
    "data": [
      {
        "post": "Overheard: \"socker is the new baseball\"."
      }
    ],
    "title": "William Smith updated his status."
  },
  {
    "timestamp": 1573271603,
    "attachments": [
      {
        "data": [
          {
            "media": {
              "uri": "photos_and_videos/MobileUploads_406Tt5mpCw/75369217_10159176000332796_2047409153361575936_n_10159176000327796.jpg",
              "creation_timestamp": 1573271601,
              "media_metadata": {
                "photo_metadata": {
                  "latitude": 37.364561111111,
                  "longitude": -122.00302777778,
                  "orientation": 1,
                  "upload_ip": "101.102.103.104"
                }
              },
              "title": "Mobile Uploads",
              "description": "The newest thing: puppy ergonomics."
            }
          }
        ]
      }
    ],
    "data": [
      {
        "post": "The newest thing: puppy ergonomics."
      }
    ]
  },
  {
    "timestamp": 1321056230,
    "attachments": [
      {
        "data": [
          {
            "media": {
              "uri": "photos_and_videos/MobileUploads_406Tt5mpCw/318333_10150541021767796_1537746557_n_10150541021767796.jpg",
              "creation_timestamp": 1321056209,
              "media_metadata": {
                "photo_metadata": {
                  "upload_ip": "101.102.103.104"
                }
              },
              "title": "Mobile Uploads",
              "description": "Growing the next generation of hackers."
            }
          }
        ]
      },
      {
        "data": [
          {
            "place": {
              "name": "Pizza & Pints",
              "coordinate": {
                "latitude": 37.48604,
                "longitude": -122.23061
              },
              "address": "821 Winslow St, Redwood City, California 94063",
              "url": "https://www.facebook.com/pizzaandpintsrwc/"
            }
          }
        ]
      }
    ]
  }
]
